[
    {
        "id": "1",
        "slug": "huwelijk-veel-sterker-geworden",
        "title": "Huwelijk veel sterker geworden",
        "subtitle": "De kracht van Gods beloften hebben zij ook veel meer in ons huwelijk teruggebracht. Biddend en zegenend stonden zij om ons heen, ook tussen de sessies. Daardoor is ons huwelijk in korte tijd veel sterker geworden.",
        "content": "Na veel moeilijke jaren vallen in ons huwelijk zijn we bij René en Lucy terechtgekomen. Door hun liefde en ook hun directe benadering hebben zij ons enorm geholpen. Juist die combinatie zorgde voor nieuwe verbinding, zowel in verbale als non verbale communicatie technieken.\n\nDe kracht van Gods beloften hebben zij ook veel meer in ons huwelijk teruggebracht. Biddend en zegenend stonden zij om ons heen, ook tussen de sessies. Daardoor is ons huwelijk in korte tijd veel sterker geworden.",
        "image": {
            "url": "https://res.cloudinary.com/datails/image/upload/v1594494430/blog_header_network_885c78a88f.jpg"
        },
        "createdAt": "2020-01-10T13:59:44.119Z"
    },
    {
        "id": "4",
        "title": "Laat God het infuus zijn...",
        "slug": "laat-god-het-infuus-zijn",
        "subtitle": "Het belangrijkste dat we van hebben geleerd? Dat als we samen God dienen, Hij onze relatie zal bouwen. Dat klinkt erg heilig, maar bij ons werkt het in de praktijk van alledag. Ook hebben we geleerd dat als één van ons een probleem heeft, er een probleem ís. Dat opent de weg voor gesprek en perspectief naar een duurzame oplossing. ",
        "content": "Het is inmiddels ruim twee jaar geleden dat we samen bij Lucy & René 'op de bank' terecht kwamen. Maar we plukken er iedere dag nog de vruchten van. Het was niet zo dat onze relatie op het punt stond om te eindigen. Maar we wisten wel allebei dat we op déze manier niet verder wilden. Er moest iets veranderen om de liefde voor elkaar terug te vinden. Die liefde was er wel, maar we konden er na acht jaren huwelijk en volle agenda's soms moeilijk bij komen. En dat is nodig. Dat we liefde naar elkaar uiten en laten binnen komen. Voor ons zelf, maar ook voor onze drie kinderen.\n\nWe hebben bij Lucy en René ervaren dat het fijn is als mensen die een generatie ouder zijn een periode in je leven over je schouders meekijken. Het helpt dat zij onafhankelijk tegenover ons staan en niet bevooroordeeld zijn. Ze hielpen ons bij het benoemen van pijn- punten, met gespreksvoering, en... dat deden ze gelukkig met de nodige humor. Het belangrijkste dat we van hebben geleerd? Dat als we samen God dienen, Hij onze relatie zal bouwen. Dat klinkt erg heilig, maar bij ons werkt het in de praktijk van alledag. Ook hebben we geleerd dat als één van ons een probleem heeft, er een probleem ís. Dat opent de weg voor gesprek en perspectief naar een duurzame oplossing.\n\nLaat je relatie niet verslonzen, klop gerust aan bij deze lieve luitjes uit Zutphen, en laat God het infuus zijn!",
        "image": {
            "url": "https://res.cloudinary.com/datails/image/upload/v1594494430/blog_header_network_885c78a88f.jpg"
        },
        "createdAt": "2020-01-09T13:59:44.119Z"
    },
    {
        "id": "5",
        "title": "En dan ben je getrouwd...",
        "slug": "en-dan-ben-je-getrouwd",
        "subtitle": "Lucy en René, geweldige mensen! Het hart op de goede plek en een ontzettende steun voor ons geweest. Gods wegen zijn ondoorgrondelijk, want hoe komen we bij hen, die zo ver weg wonen, terecht, terwijl er dichterbij huis ook hulpverleners zijn? God alleen weet waarom dit zo moest gaan en wij zijn Hem dankbaar dat hij deze mensen op onze weg heeft gebracht!",
        "content": "En dan ben je getrouwd..... je zit op een roze wolk en alles lijkt heel mooi te zijn. Tot dat je ontdekt dat er dingen gebeuren binnen je huwelijk die daar niet in passen. Je weet niet zo goed wat je moet doen, maar probeert er samen uit te komen. Dit leek ook te zijn gelukt, maar helaas gebeurde binnen korte tijd weer datgene waarom het al eerder fout dreigde te gaan...Wat nu? Er zomaar mee ophouden lijkt geen optie, want je bent nog niet eens zo lang getrouwd! Je houdt toch van elkaar? Dan wil je er toch voor vechten? Helaas kwamen we er samen niet uit en hadden we ook niet altijd goede raadgevers om ons heen. De stap was erg groot, maar we besloten om hulp te gaan zoeken binnen de Christelijke instanties. Via de site kwamen we bij Lucy en René terecht en dan gaat de molen werken.\n\nEen afspraak maken via de mail, vertellen wat er gebeurd is en dan een eerste telefoongesprek. Dit gesprek was niet makkelijk, maar vanaf het eerste moment voelde het heel vertrouwd. Fijn om te merken dat er mensen zijn die luisteren zonder dat ze er een oordeel over uitspreken.\n\nAl snel konden we terecht voor een eerste gesprek. Behoorlijk gespannen ga je dan (in ons geval) naar Lucy en René toe om je verhaal te doen. Zoveel verdriet en pijn komt er dan (weer) naar boven, want je hebt het allebei zo moeilijk! Ook in dit gesprek mochten we de liefde en de rust ervaren van deze mensen zonder een veroordeling. Wel gaven ze duidelijke handvatten waar we mee aan de slag konden gaan. Aan het eind van dit gesprek is er voor ons gebeden en mochten we weg gaan met de wetenschap dat ze voor ons zouden bidden en dat we altijd bij hen terecht konden.\n\nIn de weken daarna bleek dit ook nodig te zijn, want we hebben heel wat strijd en pijn moeten doorstaan om uiteindelijk te mogen ervaren dat de liefde alles overwint! We zijn, mede door de aangereikte handvatten van René en Lucy, in staat geweest om naar ons zelf te kijken en met onszelf aan het werk te gaan. We hebben zo ontzettend mogen ervaren dat God ons daarin heeft geleidt. Alleen dit proces door, dat konden we niet, God heeft ons de weg gewezen. Na een lange weg, waarin ruimte was om steeds contact te zoeken met Lucy en René, hebben we elkaar alles kunnen vergeven en zijn met een schone lei begonnen. Het vertrouwen in elkaar is weer terug en we weten dat God ons ook heeft laten zien vertrouwen in ons te hebben. Hij is degene die ons bij elkaar heeft gebracht en ook heeft gehouden!!!\n\nLucy en René, geweldige mensen! Het hart op de goede plek en een ontzettende steun voor ons geweest. Gods wegen zijn ondoorgrondelijk, want hoe komen we bij hen, die zo ver weg wonen, terecht, terwijl er dichterbij huis ook hulpverleners zijn? God alleen weet waarom dit zo moest gaan en wij zijn Hem dankbaar dat hij deze mensen op onze weg heeft gebracht!",
        "image": {
            "url": "https://res.cloudinary.com/datails/image/upload/v1594494430/blog_header_network_885c78a88f.jpg"
        },
        "createdAt": "2020-01-08T13:59:44.119Z"
    },
    {
        "id": "7",
        "title": "Werken aan een kostbaar huwelijk",
        "slug": "werken-aan-een-kostbaar-huwelijk",
        "subtitle": "Al vanaf het eerste gesprek was er openheid, bemoediging en terechte dieper reikende vragen. René kon doortastend de spiegel voorhouden en Lucy kon heel goed de zaken benoemen die goed gingen. Daardoor waren de gesprekken goed in balans.",
        "content": "Wij waren beiden al in de dertig toen we elkaar ontmoeten, zijn na 9 maanden in het huwelijksbootje gestapt en in 2022 waren we 15 jaar getrouwd.\nWe zijn dol op elkaar, maar toch speelden triggers uit onze verledens met regelmaat een rol in ons huwelijk. Daardoor begrepen we elkaar niet altijd even goed en werd er wederzijds gevit, terwijl wij dat beiden helemaal niet wilden. Dit stond ook onze intimiteit in de weg en daardoor gingen we een negatieve spiraal in.\nWe bespraken dit met een bevriend stel en zij brachten ons op het spoor van Lucy en René en beloofden ons dat we absoluut een klik met hen zouden hebben. En dat klopte.\nAl vanaf het eerste gesprek was er openheid, bemoediging en terechte dieper reikende vragen. René kon doortastend de spiegel voorhouden en Lucy kon heel goed de zaken benoemen die goed gingen. Daardoor waren de gesprekken goed in balans.\nWij hebben deze gesprekken steeds met elkaar voor God gebracht en Hij is op Zijn bijzondere wijze aan het werk gegaan met ons huwelijk. Herstel van intimiteit heeft tijd nodig, maar we zijn op de goede weg en hebben elkaar nog intenser lief.\nDoor gebed en wijsheid en doorbraken zijn wij nader tot elkaar gekomen. Alle eer aan de Heer, onze God.\nWij wensen jullie, die ons verhaal lezen, toe dat jullie ook samen met Lucy en Rene en God mogen gaan werken aan jullie kostbare huwelijk. God zal zorgen dat jullie weer tot elkaar zullen komen, want Hij wil jullie samen houden in liefde, vrede en vreugde.",
        "image": {
            "url": "https://res.cloudinary.com/datails/image/upload/v1594494430/blog_header_network_885c78a88f.jpg"
        },
        "createdAt": "2023-12-10T13:59:44.119Z" 
    },
    {
        "id": "8",
        "title": "Weer een team...",
        "slug": "weer-een-team",
        "subtitle": "We beseften ons dat het belangrijk is te leren weer een team te zijn in plaats van elkaar als tegenstander te zien. Lucy en Rene hebben ons daar heel mooi die dag in begeleid en ons richting gegeven om mee aan de slag te gaan..",
        "content": "Ná een zoveelste frustratie die we onderling hadden zeiden we tegen elkaar dat we maar contact moesten opnemen met Vécht ervoor. Want we wilden een huwelijk waarin frustraties niet de boventoon voeren. Na een tijdje was het zover en kwamen we langs bij Lucy en René. We hebben ons verhaal gedeeld en waar we tegenaan liepen. Liefdevol en scherp werden we bevraagd. Gaandeweg werden onze dagelijkse hekelpunten zichtbaar. Bij mij zat het vooral met pijn vanuit afwijzing en mijn man vond het lastig daarmee te dealen. Lucy en René konden goed de grote lijnen benoemen waar deze frustraties vandaan kwamen en dat we ook niet moesten vergeten dat er ook een geestelijke strijd gaande is. We beseften ons dat het belangrijk is te leren weer een team te zijn in plaats van elkaar als tegenstander te zien. Ze hebben ons daar heel mooi die dag in begeleid en ons richting gegeven om mee aan de slag te gaan.",
        "image": {
            "url": "https://res.cloudinary.com/datails/image/upload/v1594494430/blog_header_network_885c78a88f.jpg"
        },
        "createdAt": "2024-01-01T13:59:44.119Z" 
    },
    {
        "id": "9",
        "title": "Werken aan hartsverbinding",
        "slug": "werken-aan-een-hartsverbinding",
        "subtitle": "De handvatten en sleutels om te leren hoe we elkaar kunnen bevragen en waarop te focussen, hebben ons goed geholpen. Onze gesprekken met René en Lucy hebben ook wat meer bewustwording gebracht.",
        "content": "Via Google vonden wij jullie website en vrij snel sprak het ons aan, om counseling bij jullie aan te vragen. Voor ons was het belangrijk om counseling te hebben van een ervaren echtpaar. En tijdens het eerste gesprek merkten wij dat het klikte. Onze ontmoetingen vonden vaak ook in een ontspannen sfeer plaats, met een traan, maar zeker ook met een lach.  Het was altijd een warm welkom en gezellige gastvrijheid, waardoor we ons op ons gemak voelden. René was duidelijk in zijn vraagstelling, waardoor onderliggende punten duidelijker werden. Lucy was vaak ondersteunend en aanvullend hierin, vooral ook liefdevol.\nDe handvatten en sleutels om te leren hoe we elkaar kunnen bevragen en waarop te focussen, hebben ons goed geholpen. Onze gesprekken met René en Lucy hebben ook wat meer bewustwording gebracht. \nHet was fijn en bemoedigend om door René en Lucy te zijn begeleid.",
        "image": {
            "url": "https://res.cloudinary.com/datails/image/upload/v1594494430/blog_header_network_885c78a88f.jpg"
        },
        "createdAt": "2024-01-02T13:59:44.119Z" 
    },
        {
        "id": "10",
        "title": "God is goed...",
        "slug": "god-is-goed",
        "subtitle": "Doordat we zo gefocust waren op het zorgen voor de kinderen hebben we nooit echt stil gestaan bij het feit dat we ook samen een paar vormden, dat ook onderhoud en aandacht nodig had.",
        "content": "Ons huwelijk is de eerste jaren supergoed verlopen, we dienden in de kerk en genoten van onze drie kinderen. Doordat we zo gefocust waren op het zorgen voor de kinderen hebben we nooit echt stil gestaan bij het feit dat we ook samen een paar vormden, dat ook onderhoud en aandacht nodig had. Dit werd pas duidelijk nadat onze oudste twee kinderen de deur uit gingen en we overbleven met onze jongste dochter. Er kwamen steeds meer irritaties naar elkaar toe. Juli 2023 barstte de bom… Ik kon de vraag van mijn man: \"hou je nog wel van mij\"?, oprecht niet beantwoorden. Dit deed hem heel veel pijn en hij klapte totaal dicht. En voor ik het wist had ik het nummer gebeld van stichting (V)écht ervoor. Iets wat ik nooit zou doen, want bellen doe ik normaal nooit, maar onze oudste in de gemeente had dit aan ons doorgegeven, als optie om ermee aan de slag te gaan. De dag van de intake was super spannend, Eerlijk gezegd was het best heel zwaar en ook confronterend, maar ik ben blij dat we het hebben gedaan. Het ging met kleine stappen vooruit en we openden meer en meer ons hart. Ook zijn er vele tranen gevloeid, maar we zagen dat er vooruitgang werd geboekt. We hebben eerlijk naar onszelf en naar elkaar gekeken en gewerkt aan onze eigen en gezamenlijke doelen. We zijn zo ontzettend dankbaar voor de hulp, gesprekken en gebeden van René en Lucy en kunnen nu oprecht zeggen dat het goed met ons huwelijk gaat en dat we steeds meer tijd doorbrengen met elkaar en met God. God is goed, waar wij dachten: er is geen weg meer, baande God die weg en bracht genezing.",
        "image": {
            "url": "https://res.cloudinary.com/datails/image/upload/v1594494430/blog_header_network_885c78a88f.jpg"
        },
        "createdAt": "2024-08-04T13:59:44.119Z" 
    }
]